{
    "image (6).png": "image-0.png",
    "image (4).png": "image-1.png",
    "Hyper-V Manager.png": "image-2.png",
    "image (48).png": "image-3.png",
    "image (47).png": "image-4.png",
    "image (46) (1).png": "image-5.png",
    "image (48) (1).png": "image-6.png",
    "image (49).png": "image-7.png",
    "Get started with MicroPython on Raspberry Pico": "Get started with MicroPython on Raspberry Pico",
    "Errata - några fel i boken": "Errata - några fel i boken",
    "image (11).png": "image-10.png",
    "image (3).png": "image-11.png",
    "image (34).png": "image-12.png",
    "image (38).png": "image-13.png",
    "image (40).png": "image-14.png",
    "image (35).png": "image-15.png",
    "image (36).png": "image-16.png",
    "image (39).png": "image-17.png",
    "image (42).png": "image-18.png",
    "image (43).png": "image-19.png",
    "image (44).png": "image-20.png",
    "image (23).png": "image-21.png",
    "image (12).png": "image-22.png",
    "image (13).png": "image-23.png",
    "image (14).png": "image-24.png",
    "image (15).png": "image-25.png",
    "image (16).png": "image-26.png",
    "image (17).png": "image-27.png",
    "image (18).png": "image-28.png",
    "image (19).png": "image-29.png",
    "image (20).png": "image-30.png",
    "image (21).png": "image-31.png",
    "image (32).png": "image-32.png",
    "image (33).png": "image-33.png",
    "image (30).png": "image-34.png",
    "image (31).png": "image-35.png",
    "image (46).png": "image-36.png",
    "autocomplete.gif": "image-37.gif",
    "image (7).png": "image-38.png",
    "image (8).png": "image-39.png",
    "image (10).png": "image-40.png",
    "image (45).png": "image-41.png",
    "image (24).png": "image-42.png",
    "image (25).png": "image-43.png",
    "image (26).png": "image-44.png",
    "image (27).png": "image-45.png",
    "image (28).png": "image-46.png",
    "image (29).png": "image-47.png",
    "PICO-8_logo.png": "image-48.png",
    "image.png": "image-49.png"
}